[
  {
    "email": "baro.luc@gmail.com",
    "password": "zen",
    "name": "Luca",
    "surname": "Barone",
    "role": "dev",
    "type": "pro"
  },

  {
    "email": "admin@email.com",
    "password": "admin",
    "name": "Salvatore",
    "surname": "Cutaia",
    "role": "admin",
    "type": "pro"
  },

  {
    "email": "mono@email.com",
    "password": "mono",
    "name": "Giuseppe",
    "surname": "Di Capri",
    "role": "mono",
    "type": "stud"
  }
]
